{"response":{"status":"ok","userTier":"developer","total":18860,"startIndex":1,"pageSize":10,"currentPage":1,"pages":1886,"orderBy":"relevance","results":[{"id":"us-news/2020/oct/14/barron-trump-coronavirus-covid-melania-trump","type":"article","sectionId":"us-news","sectionName":"US news","webPublicationDate":"2020-10-14T22:01:15Z","webTitle":"Barron Trump tested positive for coronavirus, Melania Trump reveals","webUrl":"https://www.theguardian.com/us-news/2020/oct/14/barron-trump-coronavirus-covid-melania-trump","apiUrl":"https://content.guardianapis.com/us-news/2020/oct/14/barron-trump-coronavirus-covid-melania-trump","isHosted":false,"pillarId":"pillar/news","pillarName":"News"},{"id":"us-news/ng-interactive/2020/nov/09/the-donald-trump-presidency-in-numbers","type":"interactive","sectionId":"us-news","sectionName":"US news","webPublicationDate":"2020-11-09T10:00:06Z","webTitle":"The Trump presidency in numbers","webUrl":"https://www.theguardian.com/us-news/ng-interactive/2020/nov/09/the-donald-trump-presidency-in-numbers","apiUrl":"https://content.guardianapis.com/us-news/ng-interactive/2020/nov/09/the-donald-trump-presidency-in-numbers","isHosted":false,"pillarId":"pillar/news","pillarName":"News"},{"id":"books/2020/nov/21/can-american-democracy-survive-donald-trump","type":"article","sectionId":"books","sectionName":"Books","webPublicationDate":"2020-11-21T09:00:51Z","webTitle":"Can American democracy survive Donald Trump?","webUrl":"https://www.theguardian.com/books/2020/nov/21/can-american-democracy-survive-donald-trump","apiUrl":"https://content.guardianapis.com/books/2020/nov/21/can-american-democracy-survive-donald-trump","isHosted":false,"pillarId":"pillar/arts","pillarName":"Arts"},{"id":"music/2020/dec/08/neil-young-drops-lawsuit-against-donald-trump","type":"article","sectionId":"music","sectionName":"Music","webPublicationDate":"2020-12-08T10:15:55Z","webTitle":"Neil Young drops lawsuit against Donald Trump","webUrl":"https://www.theguardian.com/music/2020/dec/08/neil-young-drops-lawsuit-against-donald-trump","apiUrl":"https://content.guardianapis.com/music/2020/dec/08/neil-young-drops-lawsuit-against-donald-trump","isHosted":false,"pillarId":"pillar/arts","pillarName":"Arts"},{"id":"us-news/2020/dec/06/rudy-giuliani-coronavirus-covid-donald-trump","type":"article","sectionId":"us-news","sectionName":"US news","webPublicationDate":"2020-12-07T04:47:33Z","webTitle":"Rudy Giuliani has coronavirus, Donald Trump says","webUrl":"https://www.theguardian.com/us-news/2020/dec/06/rudy-giuliani-coronavirus-covid-donald-trump","apiUrl":"https://content.guardianapis.com/us-news/2020/dec/06/rudy-giuliani-coronavirus-covid-donald-trump","isHosted":false,"pillarId":"pillar/news","pillarName":"News"},{"id":"australia-news/2020/oct/06/us-election-briefing-for-australia-trump-tries-to-bodyslam-covid","type":"article","sectionId":"australia-news","sectionName":"Australia news","webPublicationDate":"2020-10-06T06:31:18Z","webTitle":"US election briefing for Australia: Trump claims victory over Covid","webUrl":"https://www.theguardian.com/australia-news/2020/oct/06/us-election-briefing-for-australia-trump-tries-to-bodyslam-covid","apiUrl":"https://content.guardianapis.com/australia-news/2020/oct/06/us-election-briefing-for-australia-trump-tries-to-bodyslam-covid","isHosted":false,"pillarId":"pillar/news","pillarName":"News"},{"id":"us-news/2020/dec/24/republicans-trump-gop-split-party","type":"article","sectionId":"us-news","sectionName":"US news","webPublicationDate":"2020-12-24T08:00:08Z","webTitle":"Has Donald Trump finally split the Republican party?","webUrl":"https://www.theguardian.com/us-news/2020/dec/24/republicans-trump-gop-split-party","apiUrl":"https://content.guardianapis.com/us-news/2020/dec/24/republicans-trump-gop-split-party","isHosted":false,"pillarId":"pillar/news","pillarName":"News"},{"id":"us-news/2020/nov/20/donald-trump-jr-tests-positive-coronavirus","type":"article","sectionId":"us-news","sectionName":"US news","webPublicationDate":"2020-11-21T00:23:04Z","webTitle":"Donald Trump Jr tests positive for coronavirus","webUrl":"https://www.theguardian.com/us-news/2020/nov/20/donald-trump-jr-tests-positive-coronavirus","apiUrl":"https://content.guardianapis.com/us-news/2020/nov/20/donald-trump-jr-tests-positive-coronavirus","isHosted":false,"pillarId":"pillar/news","pillarName":"News"},{"id":"us-news/2020/oct/29/majority-of-christians-wouldnt-back-trump","type":"article","sectionId":"us-news","sectionName":"US news","webPublicationDate":"2020-10-29T17:35:23Z","webTitle":"Majority of Christians wouldn’t back Trump | Letters","webUrl":"https://www.theguardian.com/us-news/2020/oct/29/majority-of-christians-wouldnt-back-trump","apiUrl":"https://content.guardianapis.com/us-news/2020/oct/29/majority-of-christians-wouldnt-back-trump","isHosted":false,"pillarId":"pillar/news","pillarName":"News"},{"id":"australia-news/2020/oct/19/trump-downplays-covid-as-cases-soar","type":"article","sectionId":"australia-news","sectionName":"Australia news","webPublicationDate":"2020-10-19T05:49:36Z","webTitle":"US election briefing for Australia: Trump downplays Covid as cases soar","webUrl":"https://www.theguardian.com/australia-news/2020/oct/19/trump-downplays-covid-as-cases-soar","apiUrl":"https://content.guardianapis.com/australia-news/2020/oct/19/trump-downplays-covid-as-cases-soar","isHosted":false,"pillarId":"pillar/news","pillarName":"News"}]}}